{
    "count": 684,
    "next": "http://spacelaunchnow.me/api/3.5.0/astronaut/?limit=10&offset=10",
    "previous": null,
    "results": [
        {
            "id": 276,
            "url": "http://spacelaunchnow.me/api/ll/2.2.0/astronaut/276/",
            "name": "Franz Viehböck",
            "status": {
                "id": 2,
                "name": "Retired"
            },
            "type": {
                "id": 2,
                "name": "Government"
            },
            "date_of_birth": "1960-08-24",
            "date_of_death": null,
            "nationality": "Austrian",
            "bio": "Franz Artur Viehböck (born August 24, 1960 in Vienna) is an Austrian electrical engineer, and was Austria's first cosmonaut. He was titulated „Austronaut“ by his country's media. He visited the Mir space station in 1991 aboard Soyuz TM-13, returning aboard Soyuz TM-12 after spending just over a week in space.",
            "twitter": null,
            "instagram": null,
            "wiki": "https://en.wikipedia.org/wiki/Franz_Viehb%C3%B6ck",
            "agency": {
                "id": 8,
                "url": "http://spacelaunchnow.me/api/ll/2.2.0/agencies/8/",
                "name": "Austrian Space Agency",
                "featured": false,
                "type": "Government",
                "country_code": "AUT",
                "abbrev": "ALR",
                "description": "The Austrian Space Agency was founded in 1972 and joined the ESA as a member in 1987. In 2005, control of the ALR was transferred to the Austrian Agency for Aerospace. They coordinated the first flight of an Austrian in space with a Soyuz launch in 1990.",
                "administrator": "Andreas Geisler",
                "founding_year": "1972",
                "launchers": "",
                "spacecraft": "Spacelab | GALILEO",
                "parent": null,
                "image_url": null
            },
            "profile_image": "https://spacelaunchnow-prod-east.nyc3.cdn.digitaloceanspaces.com/media/astronaut_images/franz2520viehb25c325b6ck_image_20181201223901.jpg",
            "profile_image_thumbnail": "https://spacelaunchnow-prod-east.nyc3.cdn.digitaloceanspaces.com/media/default/cache/54/57/5457ce75acb7b188196eb442e3f17b64.jpg",
            "last_flight": "1991-10-02T05:59:38Z",
            "first_flight": "1991-10-02T05:59:38Z"
        },
        {
            "id": 225,
            "url": "http://spacelaunchnow.me/api/ll/2.2.0/astronaut/225/",
            "name": "Marcos Pontes",
            "status": {
                "id": 1,
                "name": "Active"
            },
            "type": {
                "id": 2,
                "name": "Government"
            },
            "date_of_birth": "1963-03-11",
            "date_of_death": null,
            "nationality": "Brazilian",
            "bio": "Marcos Cesar Pontes (born March 11, 1963) is a Brazilian Air Force pilot, engineer, AEB astronaut and author. He became the first South American and the first Lusophone to go into space when he launched into the International Space Station aboard Soyuz TMA-8 on March 30, 2006. He is the only Brazilian to have completed the NASA astronaut training program, although he switched to training in Russia after NASA's Space Shuttle program encountered problems.",
            "twitter": null,
            "instagram": null,
            "wiki": "https://en.wikipedia.org/wiki/Marcos_Pontes",
            "agency": {
                "id": 12,
                "url": "http://spacelaunchnow.me/api/ll/2.2.0/agencies/12/",
                "name": "Brazilian Space Agency",
                "featured": false,
                "type": "Government",
                "country_code": "BRA",
                "abbrev": "AEB",
                "description": "The Brazilian Space Agency is a space agency in South America.  They work in partnership with the US and Russia aboard the ISS. It was previously operated by the military until 1994. They now operate largely in tandem with other nations. They run a spaceport and rocket launch site both in Brazil. They built the VLM small satellite launch system in tandem with Germany. The VLS-1 was intended to be a primary launch vehicle for the BSA, but it failed 3 times and was canceled. They have restarted work on the system in tandem with the Russian Space Agency.",
                "administrator": "José Raimundo Coelho",
                "founding_year": "1961",
                "launchers": "VLM | VLS",
                "spacecraft": "None",
                "parent": null,
                "image_url": null
            },
            "profile_image": "https://spacelaunchnow-prod-east.nyc3.cdn.digitaloceanspaces.com/media/astronaut_images/marcos2520pontes_image_20181201212435.jpg",
            "profile_image_thumbnail": "https://spacelaunchnow-prod-east.nyc3.cdn.digitaloceanspaces.com/media/default/cache/b5/9b/b59bb16a31087708ffb212d3e6938946.jpg",
            "last_flight": "2006-03-30T02:30:00Z",
            "first_flight": "2006-03-30T02:30:00Z"
        },
        {
            "id": 59,
            "url": "http://spacelaunchnow.me/api/ll/2.2.0/astronaut/59/",
            "name": "Aleksandr Panayotov Aleksandrov",
            "status": {
                "id": 2,
                "name": "Retired"
            },
            "type": {
                "id": 2,
                "name": "Government"
            },
            "date_of_birth": "1951-12-01",
            "date_of_death": null,
            "nationality": "Bulgarian",
            "bio": "Aleksandrov was born in Omurtag, Bulgaria on December 1, 1951. He graduated from the Bulgarian Air Force Academy in 1974 and obtained a degree in technical sciences in 1983. In the Bulgarian Air Force, Aleksandrov rose to the rank of lieutenant colonel.\r\n\r\nOn June 7, 1988, Aleksandrov launched aboard TM-5 as a Research Cosmonaut along with mission commander Anatoly Solovyev and Viktor Savinykh. Upon arriving at Mir, Aleksandrov became the first Bulgarian to reach a Soviet space station, as the Soyuz 33 mission carrying Georgi Ivanov failed to reach the Salyut 6 space station. On June 17, Aleksandrov returned aboard Soyuz TM-4 along with his fellow crew members. He, along with his crew-mates, spent just under 10 days in space.",
            "twitter": null,
            "instagram": null,
            "wiki": "https://en.wikipedia.org/wiki/Aleksandr_Panayotov_Aleksandrov",
            "agency": {
                "id": 15,
                "url": "http://spacelaunchnow.me/api/ll/2.2.0/agencies/15/",
                "name": "Bulgarian Space Agency",
                "featured": false,
                "type": "Government",
                "country_code": "BGR",
                "abbrev": "SRI-BAS",
                "description": "The Bulgarian Space Agency has put two Bulgarians onto the ISS in tandem with the Russian Space Agency. Their involvement in space began with the Interkosmos program that helped Communist Bloc countries get access to Soviet space technology. They contributed cosmonauts for a training class, two of which flew aboard the ISS.",
                "administrator": null,
                "founding_year": "1993",
                "launchers": "",
                "spacecraft": "",
                "parent": null,
                "image_url": null
            },
            "profile_image": "https://spacelaunchnow-prod-east.nyc3.cdn.digitaloceanspaces.com/media/astronaut_images/aleksandr2520panayotov2520aleksandrov_image_20181128215016.jpg",
            "profile_image_thumbnail": "https://spacelaunchnow-prod-east.nyc3.cdn.digitaloceanspaces.com/media/default/cache/6f/ea/6fea4b8e9292d68cf8a705fa0c3a95f8.jpg",
            "last_flight": "1988-06-07T14:03:13Z",
            "first_flight": "1988-06-07T14:03:13Z"
        },
        {
            "id": 80,
            "url": "http://spacelaunchnow.me/api/ll/2.2.0/astronaut/80/",
            "name": "Roberta Bondar",
            "status": {
                "id": 2,
                "name": "Retired"
            },
            "type": {
                "id": 2,
                "name": "Government"
            },
            "date_of_birth": "1945-12-04",
            "date_of_death": null,
            "nationality": "Canadian",
            "bio": "Roberta Bondar (born December 4, 1945) is Canada's first female astronaut and the first neurologist in space. Following more than a decade as NASA's head of space medicine, Bondar became a consultant and speaker in the business, scientific, and medical communities.\r\n\r\nBondar has received many honours including the Order of Canada, the Order of Ontario, the NASA Space Medal, over 22 honorary degrees and induction into the Canadian Medical Hall of Fame.",
            "twitter": null,
            "instagram": null,
            "wiki": "https://en.wikipedia.org/wiki/Roberta_Bondar",
            "agency": {
                "id": 16,
                "url": "http://spacelaunchnow.me/api/ll/2.2.0/agencies/16/",
                "name": "Canadian Space Agency",
                "featured": false,
                "type": "Government",
                "country_code": "CAN",
                "abbrev": "CSA",
                "description": "The Canadian Space Agency was established by the Canadian Space Agency Act which received Royal Assent on May 10, 1990. \r\n\r\nThe Canadian space program is administered by the Canadian Space Agency. Canada has contributed technology, expertise and personnel to the world space effort, especially in collaboration with ESA and NASA. In addition to its astronauts and satellites, some of the most notable Canadian technological contributions to space exploration include the Canadarm on the Space Shuttle and Canadarm2 on the International Space Station.",
                "administrator": null,
                "founding_year": "1990",
                "launchers": "",
                "spacecraft": "",
                "parent": null,
                "image_url": null
            },
            "profile_image": "https://spacelaunchnow-prod-east.nyc3.cdn.digitaloceanspaces.com/media/astronaut_images/roberta2520bondar_image_20181128223453.jpg",
            "profile_image_thumbnail": "https://spacelaunchnow-prod-east.nyc3.cdn.digitaloceanspaces.com/media/default/cache/1f/15/1f151ac98e03e6b4f37ec5fdfa39afc0.jpg",
            "last_flight": "1992-01-22T14:52:33Z",
            "first_flight": "1992-01-22T14:52:33Z"
        },
        {
            "id": 643,
            "url": "http://spacelaunchnow.me/api/ll/2.2.0/astronaut/643/",
            "name": "Jennifer Sidey-Gibbons",
            "status": {
                "id": 1,
                "name": "Active"
            },
            "type": {
                "id": 2,
                "name": "Government"
            },
            "date_of_birth": "1988-08-03",
            "date_of_death": null,
            "nationality": "Canadian",
            "bio": "Jennifer Sidey-Gibbons hails from Calgary, Alberta. She holds an honors bachelor's degree in mechanical engineering from McGill University in Montreal and a doctorate in engineering from the University of Cambridge. While at McGill, she conducted research on flame propagation in microgravity, in collaboration with CSA and the National Research Council Flight Research Laboratory. Prior to joining CSA, Sidey-Gibbons worked as an assistant professor in combustion in the Department of Engineering at Cambridge.",
            "twitter": "https://twitter.com/astro_jenni",
            "instagram": "https://www.instagram.com/astro_jenni/",
            "wiki": "https://en.wikipedia.org/wiki/Jenni_Sidey",
            "agency": {
                "id": 16,
                "url": "http://spacelaunchnow.me/api/ll/2.2.0/agencies/16/",
                "name": "Canadian Space Agency",
                "featured": false,
                "type": "Government",
                "country_code": "CAN",
                "abbrev": "CSA",
                "description": "The Canadian Space Agency was established by the Canadian Space Agency Act which received Royal Assent on May 10, 1990. \r\n\r\nThe Canadian space program is administered by the Canadian Space Agency. Canada has contributed technology, expertise and personnel to the world space effort, especially in collaboration with ESA and NASA. In addition to its astronauts and satellites, some of the most notable Canadian technological contributions to space exploration include the Canadarm on the Space Shuttle and Canadarm2 on the International Space Station.",
                "administrator": null,
                "founding_year": "1990",
                "launchers": "",
                "spacecraft": "",
                "parent": null,
                "image_url": null
            },
            "profile_image": "https://spacelaunchnow-prod-east.nyc3.cdn.digitaloceanspaces.com/media/astronaut_images/jennifer2520sidey-gibbons_image_20191228100223.jpeg",
            "profile_image_thumbnail": "https://spacelaunchnow-prod-east.nyc3.cdn.digitaloceanspaces.com/media/default/cache/83/04/83049a7dd1a36ae09cffe0f566626244.jpg",
            "last_flight": null,
            "first_flight": null
        },
        {
            "id": 642,
            "url": "http://spacelaunchnow.me/api/ll/2.2.0/astronaut/642/",
            "name": "Joshua Kutryk",
            "status": {
                "id": 1,
                "name": "Active"
            },
            "type": {
                "id": 2,
                "name": "Government"
            },
            "date_of_birth": "1982-03-21",
            "date_of_death": null,
            "nationality": "Canadian",
            "bio": "Joshua Kutryk, a Royal Canadian Air Force lieutenant colonel, is from Beauvallon, Alberta. He has a bachelor’s degree in mechanical engineering, as well as master’s degrees in space studies, flight test engineering, and defense studies. Prior to joining CSA, Kutryk worked as an experimental test pilot and a fighter pilot in Cold Lake, Alberta, where he led the unit responsible for the operational flight-testing of fighter aircraft in Canada.",
            "twitter": "https://twitter.com/astro_kutryk",
            "instagram": "https://www.instagram.com/astro_kutryk/",
            "wiki": "https://en.wikipedia.org/wiki/Joshua_Kutryk",
            "agency": {
                "id": 16,
                "url": "http://spacelaunchnow.me/api/ll/2.2.0/agencies/16/",
                "name": "Canadian Space Agency",
                "featured": false,
                "type": "Government",
                "country_code": "CAN",
                "abbrev": "CSA",
                "description": "The Canadian Space Agency was established by the Canadian Space Agency Act which received Royal Assent on May 10, 1990. \r\n\r\nThe Canadian space program is administered by the Canadian Space Agency. Canada has contributed technology, expertise and personnel to the world space effort, especially in collaboration with ESA and NASA. In addition to its astronauts and satellites, some of the most notable Canadian technological contributions to space exploration include the Canadarm on the Space Shuttle and Canadarm2 on the International Space Station.",
                "administrator": null,
                "founding_year": "1990",
                "launchers": "",
                "spacecraft": "",
                "parent": null,
                "image_url": null
            },
            "profile_image": "https://spacelaunchnow-prod-east.nyc3.cdn.digitaloceanspaces.com/media/astronaut_images/joshua2520kutryk_image_20191228095953.jpg",
            "profile_image_thumbnail": "https://spacelaunchnow-prod-east.nyc3.cdn.digitaloceanspaces.com/media/default/cache/51/c4/51c411ec17ad27e37be6172ca2fe4ebd.jpg",
            "last_flight": null,
            "first_flight": null
        },
        {
            "id": 112,
            "url": "http://spacelaunchnow.me/api/ll/2.2.0/astronaut/112/",
            "name": "Marc Garneau",
            "status": {
                "id": 2,
                "name": "Retired"
            },
            "type": {
                "id": 2,
                "name": "Government"
            },
            "date_of_birth": "1949-02-23",
            "date_of_death": null,
            "nationality": "Canadian",
            "bio": "Garneau was one of the first Canadian Astronauts and he became the first Canadian in outer space in October 1984. In 1984, he was seconded to the new Canadian Astronaut Program (CAP), one of six chosen from over 4,000 applicants. He flew on the shuttle Challenger, STS-41-G from October 5 to 13, 1984, as payload specialist. He was promoted to Captain in 1986, and left the Navy in 1989, to become deputy director of the CAP. In 1992–93, he underwent further training to become a mission specialist. He worked as CAPCOM for a number of shuttle flights and was on two further flights himself: STS-77 (May 19 to 29, 1996) and STS-97 (to the ISS, November 30 to December 11, 2000). He has logged over 677 hours in space.\r\n\r\nIn February 2001, he was appointed executive vice-president of the Canadian Space Agency, and became its president on November 22, 2001.",
            "twitter": null,
            "instagram": null,
            "wiki": "https://en.wikipedia.org/wiki/Marc_Garneau",
            "agency": {
                "id": 16,
                "url": "http://spacelaunchnow.me/api/ll/2.2.0/agencies/16/",
                "name": "Canadian Space Agency",
                "featured": false,
                "type": "Government",
                "country_code": "CAN",
                "abbrev": "CSA",
                "description": "The Canadian Space Agency was established by the Canadian Space Agency Act which received Royal Assent on May 10, 1990. \r\n\r\nThe Canadian space program is administered by the Canadian Space Agency. Canada has contributed technology, expertise and personnel to the world space effort, especially in collaboration with ESA and NASA. In addition to its astronauts and satellites, some of the most notable Canadian technological contributions to space exploration include the Canadarm on the Space Shuttle and Canadarm2 on the International Space Station.",
                "administrator": null,
                "founding_year": "1990",
                "launchers": "",
                "spacecraft": "",
                "parent": null,
                "image_url": null
            },
            "profile_image": "https://spacelaunchnow-prod-east.nyc3.cdn.digitaloceanspaces.com/media/astronaut_images/marc2520garneau_image_20181128232810.jpg",
            "profile_image_thumbnail": "https://spacelaunchnow-prod-east.nyc3.cdn.digitaloceanspaces.com/media/default/cache/ad/a7/ada7ace540c124ddb9d1756e2cf418da.jpg",
            "last_flight": "2000-12-01T03:06:00Z",
            "first_flight": "1984-10-05T11:03:00Z"
        },
        {
            "id": 125,
            "url": "http://spacelaunchnow.me/api/ll/2.2.0/astronaut/125/",
            "name": "Jeremy Hansen",
            "status": {
                "id": 1,
                "name": "Active"
            },
            "type": {
                "id": 2,
                "name": "Government"
            },
            "date_of_birth": "1976-01-27",
            "date_of_death": null,
            "nationality": "Canadian",
            "bio": "Jeremy Roger Hansen  is a Canadian astronaut with the Canadian Space Agency (CSA). He was selected to join the CSA in the 2009 CSA selection.",
            "twitter": "https://twitter.com/Astro_Jeremy",
            "instagram": null,
            "wiki": "https://en.wikipedia.org/wiki/Jeremy_Hansen",
            "agency": {
                "id": 16,
                "url": "http://spacelaunchnow.me/api/ll/2.2.0/agencies/16/",
                "name": "Canadian Space Agency",
                "featured": false,
                "type": "Government",
                "country_code": "CAN",
                "abbrev": "CSA",
                "description": "The Canadian Space Agency was established by the Canadian Space Agency Act which received Royal Assent on May 10, 1990. \r\n\r\nThe Canadian space program is administered by the Canadian Space Agency. Canada has contributed technology, expertise and personnel to the world space effort, especially in collaboration with ESA and NASA. In addition to its astronauts and satellites, some of the most notable Canadian technological contributions to space exploration include the Canadarm on the Space Shuttle and Canadarm2 on the International Space Station.",
                "administrator": null,
                "founding_year": "1990",
                "launchers": "",
                "spacecraft": "",
                "parent": null,
                "image_url": null
            },
            "profile_image": "https://spacelaunchnow-prod-east.nyc3.cdn.digitaloceanspaces.com/media/astronaut_images/jeremy2520hansen_image_20181129202847.jpg",
            "profile_image_thumbnail": "https://spacelaunchnow-prod-east.nyc3.cdn.digitaloceanspaces.com/media/default/cache/79/37/79372ffc8efce74517ae7ec8e02bb0d1.jpg",
            "last_flight": null,
            "first_flight": null
        },
        {
            "id": 6,
            "url": "http://spacelaunchnow.me/api/ll/2.2.0/astronaut/6/",
            "name": "David Saint-Jacques",
            "status": {
                "id": 1,
                "name": "Active"
            },
            "type": {
                "id": 2,
                "name": "Government"
            },
            "date_of_birth": "1970-01-06",
            "date_of_death": null,
            "nationality": "Canadian",
            "bio": "David Saint-Jacques is a Canadian astronaut with the Canadian Space Agency (CSA).\r\nHe was also an engineer, an astrophysicist, and a physician prior to joining the CSA.\r\nHe was selected to join the CSA in the 2009 CSA selection along with Jeremy Hansen.",
            "twitter": "https://twitter.com/Astro_DavidS",
            "instagram": "https://www.instagram.com/astrodavids/",
            "wiki": "https://en.wikipedia.org/wiki/David_Saint-Jacques",
            "agency": {
                "id": 16,
                "url": "http://spacelaunchnow.me/api/ll/2.2.0/agencies/16/",
                "name": "Canadian Space Agency",
                "featured": false,
                "type": "Government",
                "country_code": "CAN",
                "abbrev": "CSA",
                "description": "The Canadian Space Agency was established by the Canadian Space Agency Act which received Royal Assent on May 10, 1990. \r\n\r\nThe Canadian space program is administered by the Canadian Space Agency. Canada has contributed technology, expertise and personnel to the world space effort, especially in collaboration with ESA and NASA. In addition to its astronauts and satellites, some of the most notable Canadian technological contributions to space exploration include the Canadarm on the Space Shuttle and Canadarm2 on the International Space Station.",
                "administrator": null,
                "founding_year": "1990",
                "launchers": "",
                "spacecraft": "",
                "parent": null,
                "image_url": null
            },
            "profile_image": "https://spacelaunchnow-prod-east.nyc3.cdn.digitaloceanspaces.com/media/astronaut_images/david2520saint-jacques_image_20181127210456.jpg",
            "profile_image_thumbnail": "https://spacelaunchnow-prod-east.nyc3.cdn.digitaloceanspaces.com/media/default/cache/9a/7b/9a7b59945d90d3a9d3d405a00304bc89.jpg",
            "last_flight": "2018-12-03T11:31:52Z",
            "first_flight": "2018-12-03T11:31:52Z"
        },
        {
            "id": 5,
            "url": "http://spacelaunchnow.me/api/ll/2.2.0/astronaut/5/",
            "name": "Chris Hadfield",
            "status": {
                "id": 2,
                "name": "Retired"
            },
            "type": {
                "id": 2,
                "name": "Government"
            },
            "date_of_birth": "1959-08-29",
            "date_of_death": null,
            "nationality": "Canadian",
            "bio": "Chris Austin Hadfield is a Canadian retired astronaut, engineer, and former Royal Canadian Air Force fighter pilot.\r\nThe first Canadian to walk in space, Hadfield has flown two space shuttle missions and served as commander of the International Space Station.",
            "twitter": "https://twitter.com/Cmdr_Hadfield",
            "instagram": "https://www.instagram.com/colchrishadfield/",
            "wiki": "https://en.wikipedia.org/wiki/Chris_Hadfield",
            "agency": {
                "id": 16,
                "url": "http://spacelaunchnow.me/api/ll/2.2.0/agencies/16/",
                "name": "Canadian Space Agency",
                "featured": false,
                "type": "Government",
                "country_code": "CAN",
                "abbrev": "CSA",
                "description": "The Canadian Space Agency was established by the Canadian Space Agency Act which received Royal Assent on May 10, 1990. \r\n\r\nThe Canadian space program is administered by the Canadian Space Agency. Canada has contributed technology, expertise and personnel to the world space effort, especially in collaboration with ESA and NASA. In addition to its astronauts and satellites, some of the most notable Canadian technological contributions to space exploration include the Canadarm on the Space Shuttle and Canadarm2 on the International Space Station.",
                "administrator": null,
                "founding_year": "1990",
                "launchers": "",
                "spacecraft": "",
                "parent": null,
                "image_url": null
            },
            "profile_image": "https://spacelaunchnow-prod-east.nyc3.cdn.digitaloceanspaces.com/media/astronaut_images/chris2520hadfield_image_20181127204829.jpg",
            "profile_image_thumbnail": "https://spacelaunchnow-prod-east.nyc3.cdn.digitaloceanspaces.com/media/default/cache/90/c5/90c5756c11fad62fd4767bf24240aa59.jpg",
            "last_flight": "2012-12-19T12:12:35Z",
            "first_flight": "1995-11-12T12:30:43Z"
        }
    ]
}
